{
  "backgroundColor": "#1e1e2e",
  "fontColor": "#f5e0dc",
  "flickering": 0.2,
  "horizontalSync": 0,
  "staticNoise": 0.0955,
  "chromaColor": 1,
  "saturationColor": 1,
  "screenCurvature": 0,
  "glowingLine": 0.1476,
  "burnIn": 0.0955,
  "bloom": 0.5017,
  "rasterization": 0,
  "jitter": 0.099,
  "rbgShift": 0,
  "brightness": 0.5014,
  "contrast": 0.85,
  "ambientLight": 0,
  "windowOpacity": 0.7028,
  "fontName": "System: Liberation Mono",
  "fontWidth": 1,
  "margin": 0.1,
  "blinkingCursor": true,
  "frameMargin": 0,
  "name": "catppuccin",
  "version": 2
}
